{"photos":{"page":1,"pages":4118,"perpage":100,"total":411756,"photo":[{"id":"52029707233","owner":"190622906@N05","secret":"7ef12726c3","server":"65535","farm":66,"title":"Brabus External Mirror Triangle Sticker","ispublic":1,"isfriend":0,"isfamily":0},{"id":"52029703253","owner":"125819322@N03","secret":"a7412646a5","server":"65535","farm":66,"title":"","ispublic":1,"isfriend":0,"isfamily":0},{"id":"52030181515","owner":"125819322@N03","secret":"53c1966a1f","server":"65535","farm":66,"title":"","ispublic":1,"isfriend":0,"isfamily":0},{"id":"52028622492","owner":"125819322@N03","secret":"1c20166fc6","server":"65535","farm":66,"title":"","ispublic":1,"isfriend":0,"isfamily":0},{"id":"52029669976","owner":"125819322@N03","secret":"12c114302c","server":"65535","farm":66,"title":"","ispublic":1,"isfriend":0,"isfamily":0},{"id":"52029668886","owner":"190622906@N05","secret":"2c17a8ac9c","server":"65535","farm":66,"title":"Meguiars Wash Plus+ 700ml","ispublic":1,"isfriend":0,"isfamily":0},{"id":"52028616902","owner":"190622906@N05","secret":"d50ba2cd8c","server":"65535","farm":66,"title":"Smart Fortwo 453 S-MANN AIRSCOOP","ispublic":1,"isfriend":0,"isfamily":0},{"id":"52028615362","owner":"80105182@N04","secret":"5e57c6e7ed","server":"65535","farm":66,"title":"Mazda 2 Wheel Trim","ispublic":1,"isfriend":0,"isfamily":0},{"id":"52029689913","owner":"118634187@N03","secret":"a19e21df3c","server":"65535","farm":66,"title":"30364 - 1970 Ford Mustang Mach 1 428 Cobra Jet Convertible - Michigan International Speedway Official Pace Car (Hobby Exclusive) - high res","ispublic":1,"isfriend":0,"isfamily":0},{"id":"52029687183","owner":"118634187@N03","secret":"da6c0bcd3d","server":"65535","farm":66,"title":"30363 - 1970 Ford Mustang Mach 1 428 Cobra Jet Convertible - Atlanta International Raceway Official Pace Car (Hobby Exclusive) - high res","ispublic":1,"isfriend":0,"isfamily":0},{"id":"52029653446","owner":"31052408@N04","secret":"59792791f5","server":"65535","farm":66,"title":"Bajo un manto de estrellas","ispublic":1,"isfriend":0,"isfamily":0},{"id":"52028601247","owner":"48535413@N06","secret":"658ca3faae","server":"65535","farm":66,"title":"Nissan 370Z 2011 (ZB-469-H)","ispublic":1,"isfriend":0,"isfamily":0},{"id":"52028606492","owner":"189034675@N08","secret":"c5c436d606","server":"0","farm":0,"title":"Anderson Park & Douglas Park, Largs, April 2022","ispublic":1,"isfriend":0,"isfamily":0},{"id":"52030163810","owner":"192753905@N05","secret":"c145f2dcc5","server":"65535","farm":66,"title":"SS","ispublic":1,"isfriend":0,"isfamily":0},{"id":"52029678348","owner":"142546289@N08","secret":"9d44a936c5","server":"65535","farm":66,"title":"Mercedes-Benz 600 Pullman | Limousine \u201cRed Baron\u201d, 1972 | CMC 1\/18 (M-216)","ispublic":1,"isfriend":0,"isfamily":0},{"id":"52029893849","owner":"193582619@N03","secret":"6d253b51c4","server":"65535","farm":66,"title":"Dual USB Car Fast Charger Socket Power Outlet LED Voltmeter Waterproof Hown - store","ispublic":1,"isfriend":0,"isfamily":0},{"id":"52029893404","owner":"192753905@N05","secret":"77539503c0","server":"65535","farm":66,"title":"SS","ispublic":1,"isfriend":0,"isfamily":0},{"id":"52029673613","owner":"100586000@N05","secret":"25b0ce33cc","server":"65535","farm":66,"title":"Driving Al Unser's car","ispublic":1,"isfriend":0,"isfamily":0},{"id":"52028585197","owner":"16105638@N00","secret":"17246d32df","server":"65535","farm":66,"title":"The long wait","ispublic":1,"isfriend":0,"isfamily":0},{"id":"52029630931","owner":"16105638@N00","secret":"24832d5a23","server":"65535","farm":66,"title":"The long wait","ispublic":1,"isfriend":0,"isfamily":0},{"id":"52029630611","owner":"16105638@N00","secret":"0c665637e7","server":"65535","farm":66,"title":"The long wait","ispublic":1,"isfriend":0,"isfamily":0},{"id":"52029663778","owner":"195442060@N05","secret":"19ce58e43c","server":"65535","farm":66,"title":"Corvette GTE @VIR","ispublic":1,"isfriend":0,"isfamily":0},{"id":"52029655608","owner":"142546289@N08","secret":"a520c25973","server":"65535","farm":66,"title":"Mercedes-Benz 600 Pullman | Limousine \u201cRed Baron\u201d, 1972 | CMC 1\/18 (M-216)","ispublic":1,"isfriend":0,"isfamily":0},{"id":"52028572282","owner":"25103161@N02","secret":"1b9710c267","server":"65535","farm":66,"title":"Cars for a Cause Cruise-In Apr 2022-1328","ispublic":1,"isfriend":0,"isfamily":0},{"id":"52029651278","owner":"25103161@N02","secret":"5cfe9f7959","server":"65535","farm":66,"title":"Cars for a Cause Cruise-In Apr 2022-1322","ispublic":1,"isfriend":0,"isfamily":0},{"id":"52029617981","owner":"25103161@N02","secret":"51cafbe84a","server":"65535","farm":66,"title":"Cars for a Cause Cruise-In Apr 2022-1336","ispublic":1,"isfriend":0,"isfamily":0},{"id":"52029617996","owner":"25103161@N02","secret":"a86ab0a066","server":"65535","farm":66,"title":"Cars for a Cause Cruise-In Apr 2022-1333","ispublic":1,"isfriend":0,"isfamily":0},{"id":"52029651258","owner":"25103161@N02","secret":"629746acb9","server":"65535","farm":66,"title":"Cars for a Cause Cruise-In Apr 2022-1332","ispublic":1,"isfriend":0,"isfamily":0},{"id":"52029866919","owner":"25103161@N02","secret":"6cc8c6b108","server":"65535","farm":66,"title":"Cars for a Cause Cruise-In Apr 2022-1339","ispublic":1,"isfriend":0,"isfamily":0},{"id":"52029651138","owner":"25103161@N02","secret":"c16c7212db","server":"65535","farm":66,"title":"Cars for a Cause Cruise-In Apr 2022-1342","ispublic":1,"isfriend":0,"isfamily":0},{"id":"52029651173","owner":"25103161@N02","secret":"cc3c173302","server":"65535","farm":66,"title":"Cars for a Cause Cruise-In Apr 2022-1340","ispublic":1,"isfriend":0,"isfamily":0},{"id":"52030130830","owner":"25103161@N02","secret":"a85057ff3c","server":"65535","farm":66,"title":"Cars for a Cause Cruise-In Apr 2022-1341","ispublic":1,"isfriend":0,"isfamily":0},{"id":"52029651123","owner":"25103161@N02","secret":"5c04611418","server":"65535","farm":66,"title":"Cars for a Cause Cruise-In Apr 2022-1343","ispublic":1,"isfriend":0,"isfamily":0},{"id":"52030130780","owner":"25103161@N02","secret":"540396052f","server":"65535","farm":66,"title":"Cars for a Cause Cruise-In Apr 2022-1345","ispublic":1,"isfriend":0,"isfamily":0},{"id":"52029617886","owner":"25103161@N02","secret":"3f633356cf","server":"65535","farm":66,"title":"Cars for a Cause Cruise-In Apr 2022-1347","ispublic":1,"isfriend":0,"isfamily":0},{"id":"52029866819","owner":"25103161@N02","secret":"8964e34af4","server":"65535","farm":66,"title":"Cars for a Cause Cruise-In Apr 2022-1346","ispublic":1,"isfriend":0,"isfamily":0},{"id":"52029866769","owner":"25103161@N02","secret":"4f6da5f52e","server":"65535","farm":66,"title":"Cars for a Cause Cruise-In Apr 2022-9843","ispublic":1,"isfriend":0,"isfamily":0},{"id":"52029651053","owner":"25103161@N02","secret":"69e10e1878","server":"65535","farm":66,"title":"Cars for a Cause Cruise-In Apr 2022-9840","ispublic":1,"isfriend":0,"isfamily":0},{"id":"52030130735","owner":"25103161@N02","secret":"6f8132fe01","server":"65535","farm":66,"title":"Cars for a Cause Cruise-In Apr 2022-9835","ispublic":1,"isfriend":0,"isfamily":0},{"id":"52029866744","owner":"25103161@N02","secret":"d2902cb958","server":"65535","farm":66,"title":"Cars for a Cause Cruise-In Apr 2022-9847","ispublic":1,"isfriend":0,"isfamily":0},{"id":"52029866704","owner":"25103161@N02","secret":"cddd8dfc06","server":"65535","farm":66,"title":"Cars for a Cause Cruise-In Apr 2022-9852","ispublic":1,"isfriend":0,"isfamily":0},{"id":"52029866719","owner":"25103161@N02","secret":"3c90de2d63","server":"65535","farm":66,"title":"Cars for a Cause Cruise-In Apr 2022-9851","ispublic":1,"isfriend":0,"isfamily":0},{"id":"52028572022","owner":"25103161@N02","secret":"1ff5014936","server":"65535","farm":66,"title":"Cars for a Cause Cruise-In Apr 2022-9854","ispublic":1,"isfriend":0,"isfamily":0},{"id":"52029617766","owner":"25103161@N02","secret":"f0cb558290","server":"65535","farm":66,"title":"Cars for a Cause Cruise-In Apr 2022-9864","ispublic":1,"isfriend":0,"isfamily":0},{"id":"52030130615","owner":"25103161@N02","secret":"0acab59ddd","server":"65535","farm":66,"title":"Cars for a Cause Cruise-In Apr 2022-9866","ispublic":1,"isfriend":0,"isfamily":0},{"id":"52030130590","owner":"25103161@N02","secret":"30400ca986","server":"65535","farm":66,"title":"Cars for a Cause Cruise-In Apr 2022-9868","ispublic":1,"isfriend":0,"isfamily":0},{"id":"52028571952","owner":"25103161@N02","secret":"5f9ca7bb6d","server":"65535","farm":66,"title":"Cars for a Cause Cruise-In Apr 2022-9870","ispublic":1,"isfriend":0,"isfamily":0},{"id":"52030130535","owner":"25103161@N02","secret":"71227d7c0a","server":"65535","farm":66,"title":"Cars for a Cause Cruise-In Apr 2022a-1322","ispublic":1,"isfriend":0,"isfamily":0},{"id":"52030130510","owner":"25103161@N02","secret":"36c57652a4","server":"65535","farm":66,"title":"Cars for a Cause Cruise-In Apr 2022a-1323","ispublic":1,"isfriend":0,"isfamily":0},{"id":"52029617711","owner":"25103161@N02","secret":"b468fe68d1","server":"65535","farm":66,"title":"Cars for a Cause Cruise-In Apr 2022a-1324","ispublic":1,"isfriend":0,"isfamily":0},{"id":"52028571892","owner":"25103161@N02","secret":"68525373e1","server":"65535","farm":66,"title":"Cars for a Cause Cruise-In Apr 2022a-1328","ispublic":1,"isfriend":0,"isfamily":0},{"id":"52029866594","owner":"25103161@N02","secret":"671f66f3a6","server":"65535","farm":66,"title":"Cars for a Cause Cruise-In Apr 2022a-1327","ispublic":1,"isfriend":0,"isfamily":0},{"id":"52029650788","owner":"25103161@N02","secret":"0c16aee786","server":"65535","farm":66,"title":"Cars for a Cause Cruise-In Apr 2022a-1325","ispublic":1,"isfriend":0,"isfamily":0},{"id":"52029866579","owner":"25103161@N02","secret":"679b22b207","server":"65535","farm":66,"title":"Cars for a Cause Cruise-In Apr 2022a-1331","ispublic":1,"isfriend":0,"isfamily":0},{"id":"52029866514","owner":"25103161@N02","secret":"9abf3d2f3a","server":"65535","farm":66,"title":"Cars for a Cause Cruise-In Apr 2022a-1363","ispublic":1,"isfriend":0,"isfamily":0},{"id":"52028571832","owner":"25103161@N02","secret":"6ca69b435d","server":"65535","farm":66,"title":"Cars for a Cause Cruise-In Apr 2022a-1352","ispublic":1,"isfriend":0,"isfamily":0},{"id":"52029650648","owner":"25103161@N02","secret":"9cf4cb877e","server":"65535","farm":66,"title":"Cars for a Cause Cruise-In Apr 2022a-1364","ispublic":1,"isfriend":0,"isfamily":0},{"id":"52029866454","owner":"25103161@N02","secret":"3aaee38b21","server":"65535","farm":66,"title":"Cars for a Cause Cruise-In Apr 2022a-1371","ispublic":1,"isfriend":0,"isfamily":0},{"id":"52028571782","owner":"25103161@N02","secret":"3a40f76e24","server":"65535","farm":66,"title":"Cars for a Cause Cruise-In Apr 2022a-1366","ispublic":1,"isfriend":0,"isfamily":0},{"id":"52029866489","owner":"25103161@N02","secret":"d4f6568a6f","server":"65535","farm":66,"title":"Cars for a Cause Cruise-In Apr 2022a-1368","ispublic":1,"isfriend":0,"isfamily":0},{"id":"52030130290","owner":"25103161@N02","secret":"937c53de66","server":"65535","farm":66,"title":"Cars for a Cause Cruise-In Apr 2022a-1377","ispublic":1,"isfriend":0,"isfamily":0},{"id":"52028571732","owner":"25103161@N02","secret":"97e3df02fa","server":"65535","farm":66,"title":"Cars for a Cause Cruise-In Apr 2022a-1375","ispublic":1,"isfriend":0,"isfamily":0},{"id":"52029650558","owner":"25103161@N02","secret":"3a9b65baf8","server":"65535","farm":66,"title":"Cars for a Cause Cruise-In Apr 2022a-1386","ispublic":1,"isfriend":0,"isfamily":0},{"id":"52030130260","owner":"25103161@N02","secret":"d83c32e86f","server":"65535","farm":66,"title":"Cars for a Cause Cruise-In Apr 2022a-1383","ispublic":1,"isfriend":0,"isfamily":0},{"id":"52028571717","owner":"25103161@N02","secret":"2883b23ae4","server":"65535","farm":66,"title":"Cars for a Cause Cruise-In Apr 2022a-1381","ispublic":1,"isfriend":0,"isfamily":0},{"id":"52029650543","owner":"25103161@N02","secret":"ed02dd33c8","server":"65535","farm":66,"title":"Cars for a Cause Cruise-In Apr 2022a-1387","ispublic":1,"isfriend":0,"isfamily":0},{"id":"52029650503","owner":"25103161@N02","secret":"49e8813b5f","server":"65535","farm":66,"title":"Cars for a Cause Cruise-In Apr 2022a-1389","ispublic":1,"isfriend":0,"isfamily":0},{"id":"52028571632","owner":"25103161@N02","secret":"285b537a60","server":"65535","farm":66,"title":"Cars for a Cause Cruise-In Apr 2022a-1390","ispublic":1,"isfriend":0,"isfamily":0},{"id":"52029617386","owner":"25103161@N02","secret":"5e0233e894","server":"65535","farm":66,"title":"Cars for a Cause Cruise-In Apr 2022a-1393","ispublic":1,"isfriend":0,"isfamily":0},{"id":"52030130150","owner":"25103161@N02","secret":"f52bd3980e","server":"65535","farm":66,"title":"Cars for a Cause Cruise-In Apr 2022a-1407","ispublic":1,"isfriend":0,"isfamily":0},{"id":"52028571622","owner":"25103161@N02","secret":"8a635e5350","server":"65535","farm":66,"title":"Cars for a Cause Cruise-In Apr 2022a-1391","ispublic":1,"isfriend":0,"isfamily":0},{"id":"52030130155","owner":"25103161@N02","secret":"2ca1a8b9cd","server":"65535","farm":66,"title":"Cars for a Cause Cruise-In Apr 2022a-1392","ispublic":1,"isfriend":0,"isfamily":0},{"id":"52029617351","owner":"25103161@N02","secret":"00a8997854","server":"65535","farm":66,"title":"Cars for a Cause Cruise-In Apr 2022a-1397","ispublic":1,"isfriend":0,"isfamily":0},{"id":"52029866244","owner":"25103161@N02","secret":"b2636b7ec9","server":"65535","farm":66,"title":"Cars for a Cause Cruise-In Apr 2022a-1399","ispublic":1,"isfriend":0,"isfamily":0},{"id":"52029866279","owner":"25103161@N02","secret":"b0b7a51738","server":"65535","farm":66,"title":"Cars for a Cause Cruise-In Apr 2022a-1398","ispublic":1,"isfriend":0,"isfamily":0},{"id":"52029866289","owner":"25103161@N02","secret":"b66aff771d","server":"65535","farm":66,"title":"Cars for a Cause Cruise-In Apr 2022a-1394","ispublic":1,"isfriend":0,"isfamily":0},{"id":"52029866194","owner":"25103161@N02","secret":"9662d4fb49","server":"65535","farm":66,"title":"Cars for a Cause Cruise-In Apr 2022a-1403","ispublic":1,"isfriend":0,"isfamily":0},{"id":"52028571517","owner":"25103161@N02","secret":"39e6260c60","server":"65535","farm":66,"title":"Cars for a Cause Cruise-In Apr 2022a-1404","ispublic":1,"isfriend":0,"isfamily":0},{"id":"52029617296","owner":"25103161@N02","secret":"763ed24a5a","server":"65535","farm":66,"title":"Cars for a Cause Cruise-In Apr 2022a-1401","ispublic":1,"isfriend":0,"isfamily":0},{"id":"52030129985","owner":"25103161@N02","secret":"dc4c2b0bec","server":"65535","farm":66,"title":"Cars for a Cause Cruise-In Apr 2022a-1408","ispublic":1,"isfriend":0,"isfamily":0},{"id":"52029617186","owner":"25103161@N02","secret":"1643635215","server":"65535","farm":66,"title":"Cars for a Cause Cruise-In Apr 2022a-1410","ispublic":1,"isfriend":0,"isfamily":0},{"id":"52028571417","owner":"25103161@N02","secret":"1a462da8fe","server":"65535","farm":66,"title":"Cars for a Cause Cruise-In Apr 2022a-1412","ispublic":1,"isfriend":0,"isfamily":0},{"id":"52030129800","owner":"25103161@N02","secret":"c2d5e323dc","server":"65535","farm":66,"title":"Cars for a Cause Cruise-In Apr 2022a-1417","ispublic":1,"isfriend":0,"isfamily":0},{"id":"52029650158","owner":"25103161@N02","secret":"284b28c656","server":"65535","farm":66,"title":"Cars for a Cause Cruise-In Apr 2022a-1418","ispublic":1,"isfriend":0,"isfamily":0},{"id":"52030129740","owner":"25103161@N02","secret":"fbedee956e","server":"65535","farm":66,"title":"Cars for a Cause Cruise-In Apr 2022a-1423","ispublic":1,"isfriend":0,"isfamily":0},{"id":"52029865779","owner":"25103161@N02","secret":"94e30a44ed","server":"65535","farm":66,"title":"Cars for a Cause Cruise-In Apr 2022a-1428","ispublic":1,"isfriend":0,"isfamily":0},{"id":"52028571212","owner":"25103161@N02","secret":"e3cb163cc9","server":"65535","farm":66,"title":"Cars for a Cause Cruise-In Apr 2022a-1429","ispublic":1,"isfriend":0,"isfamily":0},{"id":"52030129670","owner":"25103161@N02","secret":"7330f18094","server":"65535","farm":66,"title":"Cars for a Cause Cruise-In Apr 2022a-1426","ispublic":1,"isfriend":0,"isfamily":0},{"id":"52029863244","owner":"152639670@N04","secret":"4e2773257e","server":"65535","farm":66,"title":"1934 Crossley","ispublic":1,"isfriend":0,"isfamily":0},{"id":"52029609936","owner":"145400993@N07","secret":"bbdf73c172","server":"65535","farm":66,"title":"British touring cars trucks.   Donnington","ispublic":1,"isfriend":0,"isfamily":0},{"id":"52029642893","owner":"145400993@N07","secret":"c7b64cfcda","server":"65535","farm":66,"title":"Saftey car","ispublic":1,"isfriend":0,"isfamily":0},{"id":"52029858604","owner":"145400993@N07","secret":"fe46b75ef0","server":"65535","farm":66,"title":"British touring cars trucks.   Donnington","ispublic":1,"isfriend":0,"isfamily":0},{"id":"52028563727","owner":"156846824@N04","secret":"c5c8638fa6","server":"65535","farm":66,"title":"fabulous-fords-forever-irwin-dale-2022-09","ispublic":1,"isfriend":0,"isfamily":0},{"id":"52030122360","owner":"145400993@N07","secret":"616e7284d2","server":"65535","farm":66,"title":"British touring cars trucks.   Donnington","ispublic":1,"isfriend":0,"isfamily":0},{"id":"52028563627","owner":"156846824@N04","secret":"d5c079e887","server":"65535","farm":66,"title":"fabulous-fords-forever-irwin-dale-2022-10","ispublic":1,"isfriend":0,"isfamily":0},{"id":"52028563577","owner":"156846824@N04","secret":"debff56074","server":"65535","farm":66,"title":"fabulous-fords-forever-irwin-dale-2022-11","ispublic":1,"isfriend":0,"isfamily":0},{"id":"52029609396","owner":"156846824@N04","secret":"55bff9952f","server":"65535","farm":66,"title":"fabulous-fords-forever-irwin-dale-2022-12","ispublic":1,"isfriend":0,"isfamily":0},{"id":"52030122160","owner":"145400993@N07","secret":"b4bc5e29e2","server":"65535","farm":66,"title":"British touring cars trucks.   Donnington","ispublic":1,"isfriend":0,"isfamily":0},{"id":"52029642268","owner":"145400993@N07","secret":"19273c813d","server":"65535","farm":66,"title":"British touring cars trucks.   Donnington","ispublic":1,"isfriend":0,"isfamily":0},{"id":"52029609266","owner":"156846824@N04","secret":"9e4f4da047","server":"65535","farm":66,"title":"fabulous-fords-forever-irwin-dale-2022-14","ispublic":1,"isfriend":0,"isfamily":0}]},"stat":"ok"}
